{
    "@class": "com.kony.gen.viz.model.component.KVizUserWidget",
    "DNDConfig": null,
    "__parentReadjusting__": false,
    "_android_": {},
    "_children_": [],
    "_height_": {
        "type": "string",
        "value": "100%"
    },
    "_iphone_": {},
    "_left_": {
        "type": "string",
        "value": "-100%"
    },
    "_margin_": [
        0,
        0,
        0,
        0
    ],
    "_orientation_": 1,
    "_padding_": [
        0,
        0,
        0,
        0
    ],
    "_percent_": true,
    "_skin_": "s49d07a65a634391995b3ba1865cfa59",
    "_spa_": {},
    "_spaan_": {},
    "_spabb_": {},
    "_spaip_": {},
    "_top_": {
        "type": "string",
        "value": "0dp"
    },
    "_vizProps_": {
        "hidewidgethierarchy": false
    },
    "_width_": {
        "type": "string",
        "value": "100%"
    },
    "areflexpropsreferenced": false,
    "canUpdateUI": true,
    "clipbounds": true,
    "containerweight": 0,
    "dataDiffs": {
        "Hamburger": {
            "__events__": {},
            "__info__": {
                "isRoot": true,
                "kuid": "c984431990c64480b2e6adff62faa740",
                "srcKUID": "cbac264a3c2a4c019db3769d7ba88fbe",
                "wType": "FlexContainer"
            },
            "left": {
                "Default": {
                    "type": "string",
                    "value": "-100%"
                }
            }
        },
        "flxAboutKYou": {
            "__events__": {},
            "__info__": {
                "kuid": "ceec0c615f7c427487ff599dfb17d81f",
                "srcKUID": "b8a94e410a3b4db6abf6d221e619549b",
                "wType": "FlexContainer"
            }
        },
        "flxAccountSettings": {
            "__events__": {},
            "__info__": {
                "kuid": "b849ed8f4916431688d5f6f91fcf52ce",
                "srcKUID": "c0baf5b8112848b49b1de4c168d38f73",
                "wType": "FlexContainer"
            }
        },
        "flxHistory": {
            "__events__": {},
            "__info__": {
                "kuid": "hc0a92bffe0f4190a998b819d8f46f1a",
                "srcKUID": "f6f9a49320ed4abeac8fe32a67e16980",
                "wType": "FlexContainer"
            }
        },
        "flxImgIcon": {
            "__events__": {},
            "__info__": {
                "kuid": "d6d7e4ac1f75450c922124043812d76e",
                "srcKUID": "h990483f86934efca00d7c103c79c2fd",
                "wType": "FlexContainer"
            }
        },
        "flxInviteFriends": {
            "__events__": {},
            "__info__": {
                "kuid": "d66739ebfb2c49c484b2c39d82aae915",
                "srcKUID": "d0a2587a70994549a0929bee53ac21cb",
                "wType": "FlexContainer"
            }
        },
        "flxMenuOptions": {
            "__events__": {},
            "__info__": {
                "kuid": "h2a198a92fe54fd6a6b15608b54f05b5",
                "srcKUID": "e7b017fea0ae40f6a1e26b7c6f42f190",
                "wType": "FlexContainer"
            }
        },
        "flxOverlay": {
            "__events__": {
                "ide_onTouchStart": "AS_FlexContainer_d6bc386b99754e4da23cffd4d16a3ed5"
            },
            "__info__": {
                "kuid": "c034c72a95854e2291f47ca116921dbf",
                "srcKUID": "d2514fed071a4c04b4ae98c8cf417720",
                "wType": "FlexContainer"
            }
        },
        "flxReports": {
            "__events__": {},
            "__info__": {
                "kuid": "c36cb578c37a4a5ab0b09076101b5f26",
                "srcKUID": "c8f31c6405044da7920d4c4378421e96",
                "wType": "FlexContainer"
            }
        },
        "flxSideMenu": {
            "__events__": {},
            "__info__": {
                "kuid": "f23988ca12b24e0791e3380c3dca8095",
                "srcKUID": "c569e3fd7d5449c08918667df3e1da92",
                "wType": "FlexContainer"
            }
        },
        "flxSignOut": {
            "__events__": {},
            "__info__": {
                "kuid": "f61b0dd2aff24960ad8813bc2dc36b49",
                "srcKUID": "dac5679e8dfd41e491b5c62cfc2026d5",
                "wType": "FlexContainer"
            }
        },
        "flxUser": {
            "__events__": {},
            "__info__": {
                "kuid": "haf3482e6da74949bb66164a3c185f5d",
                "srcKUID": "b92cfd5df88c4cfda5a75c2acae6e0ba",
                "wType": "FlexContainer"
            }
        },
        "flxUserGuide": {
            "__events__": {},
            "__info__": {
                "kuid": "j8380af515ec4092a2ca22e8317c3fc8",
                "srcKUID": "daebd1c9558d45248acdcbf8cacbf747",
                "wType": "FlexContainer"
            }
        },
        "flxUserLiner": {
            "__events__": {},
            "__info__": {
                "kuid": "d5defdcd579e46cd981c4010f9adec21",
                "srcKUID": "jee111cc9a7242ddbe7271059683f759",
                "wType": "FlexContainer"
            }
        },
        "imgAccSettings": {
            "__events__": {},
            "__info__": {
                "kuid": "caa8290c51044a9982d122fc26f4e1af",
                "srcKUID": "f554fe9d90fd432e86bb8da6c3039681",
                "wType": "Image"
            }
        },
        "imgEditIcon": {
            "__events__": {},
            "__info__": {
                "kuid": "h0531b6aca4047fea2a8a53084980639",
                "srcKUID": "d4b370a65fbc4ca5a9c2bc2bcce4a44e",
                "wType": "Image"
            }
        },
        "imgHistoryIcon": {
            "__events__": {},
            "__info__": {
                "kuid": "f05170ff17ab46f9969631d13cbe0b67",
                "srcKUID": "i973dce66c6548769214a98bb23cccef",
                "wType": "Image"
            }
        },
        "imgInviteIcon": {
            "__events__": {},
            "__info__": {
                "kuid": "if35332d4ae240728317fd90e65ea2f8",
                "srcKUID": "g3d0d13e8c544191b304f5f9ad18a16e",
                "wType": "Image"
            }
        },
        "imgKYou": {
            "__events__": {},
            "__info__": {
                "kuid": "d1cb886b5dcf41ffbbbd7d2a1c02a3e5",
                "srcKUID": "a06b3c19345343a288c909b511f23249",
                "wType": "Image"
            }
        },
        "imgReportsIcon": {
            "__events__": {},
            "__info__": {
                "kuid": "c634807ef89a40c28570111ce21a683c",
                "srcKUID": "ja9890f706b74f08b061f8b8b77050f7",
                "wType": "Image"
            }
        },
        "imgSignOut": {
            "__events__": {},
            "__info__": {
                "kuid": "e9281d14979143039bc84211ea778441",
                "srcKUID": "jfd3ec0b7c9d4fa5a9e994621b2338bf",
                "wType": "Image"
            }
        },
        "imgUserGuideIcon": {
            "__events__": {},
            "__info__": {
                "kuid": "f0b3bbc66635421dba54184af5e138d5",
                "srcKUID": "ab3bf89d3c8740aeb16586f8cb3abe17",
                "wType": "Image"
            }
        },
        "imgUserIcon": {
            "__events__": {},
            "__info__": {
                "kuid": "c34c31b334af47ff86b774fd04cf6aac",
                "srcKUID": "ebfe36674ba24577926add9ce682150a",
                "wType": "Image"
            }
        },
        "lblAboutKYou": {
            "__events__": {},
            "__info__": {
                "kuid": "bff03738d4a3419b9994e7eaf7dd3db4",
                "srcKUID": "c6380db4ea064b7c8e94b7f54deafb27",
                "wType": "Label"
            }
        },
        "lblAccSettings": {
            "__events__": {},
            "__info__": {
                "kuid": "eefca24404ce4846a76e5275f52f1bf2",
                "srcKUID": "fa8a5325eebe422aa1a6bf5b089aed0c",
                "wType": "Label"
            }
        },
        "lblHistory": {
            "__events__": {},
            "__info__": {
                "kuid": "ef848b63c6074516ae35b8b0be3cf461",
                "srcKUID": "i17cede0ce494724a1f579358f6e09e8",
                "wType": "Label"
            }
        },
        "lblInviteFriends": {
            "__events__": {},
            "__info__": {
                "kuid": "i14a12b60b04459db000b01d381a4ed8",
                "srcKUID": "aa99c873222f477b951bb58276283bc4",
                "wType": "Label"
            }
        },
        "lblSignOut": {
            "__events__": {},
            "__info__": {
                "kuid": "i46beb5d930e4987a136cadb62a90617",
                "srcKUID": "g2f12bdb35f34c0894e52d72088a08de",
                "wType": "Label"
            }
        },
        "lblUserGuide": {
            "__events__": {},
            "__info__": {
                "kuid": "g4cff16b2cbf4869a9dd695195048ae8",
                "srcKUID": "cdafb8cc76e24dbf83fa5484fe66b4d4",
                "wType": "Label"
            }
        },
        "lblUserName": {
            "__events__": {},
            "__info__": {
                "kuid": "gd707b67346644da8ddf988307eff242",
                "srcKUID": "b68efa728a9842df83b82c86596dc75f",
                "wType": "Label"
            }
        },
        "lblreports": {
            "__events__": {},
            "__info__": {
                "kuid": "ae12ad14ab50469bb1e81d58d58f917f",
                "srcKUID": "adf54ffa9a274d44acde4bdecf72ae1f",
                "wType": "Label"
            }
        }
    },
    "enablescrolling": true,
    "id": "Hamburger",
    "info": null,
    "iscustomlayout": false,
    "isdatareferenced": false,
    "isvisible": true,
    "kuid": "c984431990c64480b2e6adff62faa740",
    "layouttype": 2,
    "masterType": 0,
    "name": "kony.ui.UserWidgetInstance",
    "parent": "frmSearch",
    "pf": "frmSearch",
    "retaincontentalignment": false,
    "retainflexpositionproperties": false,
    "retainflowhorizontalalignment": false,
    "snapgridsize": 10,
    "snaptogrid": true,
    "sourceUserWidget": "cbac264a3c2a4c019db3769d7ba88fbe",
    "wType": "UserWidgetInstance"
}