{
    "DNDConfig": null,
    "__parentReadjusting__": false,
    "_height_": {
        "type": "string",
        "value": "100%"
    },
    "_left_": {
        "type": "string",
        "value": "0%"
    },
    "_margin_": [
        0,
        0,
        0,
        0
    ],
    "_orientation_": 6,
    "_padding_": [
        0,
        0,
        0,
        0
    ],
    "_percent_": true,
    "_skin_": "s49d07a65a634391995b3ba1865cfa59",
    "_top_": {
        "type": "string",
        "value": "0%"
    },
    "_width_": {
        "type": "string",
        "value": "48%"
    },
    "allboxes": [],
    "autogrowmode": 0,
    "canUpdateUI": true,
    "children": [
        "lblAttachContent",
        "imgIconAttach"
    ],
    "clipbounds": true,
    "containerweight": 100,
    "enablescrolling": true,
    "id": "flxAttachContent",
    "ide_onClick": "AS_FlexContainer_b586b9eb562e4fffbdb4ef284a87482d",
    "info": null,
    "iscustomlayout": false,
    "isvisible": true,
    "kuid": "b7229cff10b849aea0bc6740e12afbfb",
    "layouttype": 2,
    "name": "kony.ui.FlexContainer",
    "parent": "flxAudioFunctions",
    "pf": "frmLogCommplain",
    "retaincontentalignment": false,
    "retainflexpositionproperties": false,
    "retainflowhorizontalalignment": false,
    "snapgridsize": 10,
    "snaptogrid": true,
    "vizProps": {
        "hide": false
    },
    "wType": "FlexContainer",
    "widgetalignment": 1
}