{
    "DNDConfig": null,
    "__parentReadjusting__": false,
    "_bottom_": {
        "type": "string",
        "value": "0%"
    },
    "_height_": {
        "type": "string",
        "value": "100%"
    },
    "_margin_": [
        0,
        0,
        0,
        0
    ],
    "_orientation_": 6,
    "_padding_": [
        0,
        0,
        0,
        0
    ],
    "_percent_": true,
    "_right_": {
        "type": "number",
        "value": "0"
    },
    "_skin_": "s49d07a65a634391995b3ba1865cfa59",
    "_width_": {
        "type": "string",
        "value": "48%"
    },
    "allboxes": [],
    "autogrowmode": 0,
    "canUpdateUI": true,
    "children": [
        "lblCancel",
        "imgCancelIcon"
    ],
    "clipbounds": true,
    "containerweight": 100,
    "enablescrolling": true,
    "id": "flxCancelContent",
    "ide_onClick": "AS_FlexContainer_ceb2e68d726545368513efd4bcb96ce1",
    "info": null,
    "iscustomlayout": false,
    "isvisible": true,
    "kuid": "i884511ca077436499e84aaf4172ca95",
    "layouttype": 2,
    "name": "kony.ui.FlexContainer",
    "parent": "flxAudioOptions",
    "pf": "frmLogCommplain",
    "retaincontentalignment": false,
    "retainflexpositionproperties": false,
    "retainflowhorizontalalignment": false,
    "snapgridsize": 10,
    "snaptogrid": true,
    "wType": "FlexContainer",
    "widgetalignment": 1
}