{
    "DNDConfig": null,
    "__parentReadjusting__": false,
    "_height_": {
        "type": "string",
        "value": "100%"
    },
    "_left_": {
        "type": "string",
        "value": "0%"
    },
    "_margin_": [
        0,
        0,
        0,
        0
    ],
    "_orientation_": 6,
    "_padding_": [
        0,
        0,
        0,
        0
    ],
    "_percent_": true,
    "_skin_": "s49d07a65a634391995b3ba1865cfa59",
    "_width_": {
        "type": "string",
        "value": "33.33%"
    },
    "allboxes": [],
    "autogrowmode": 0,
    "canUpdateUI": true,
    "centery": {
        "type": "string",
        "value": "50%"
    },
    "children": [
        "lblSendText",
        "CopyimgSurveyIcon0e806fed7aef442"
    ],
    "clipbounds": true,
    "containerweight": 100,
    "enablescrolling": true,
    "id": "flxSendText",
    "ide_onClick": "AS_FlexContainer_a4d069b1eb53405582cad1c797e97184",
    "info": null,
    "iscustomlayout": false,
    "isvisible": true,
    "kuid": "e807e2c21ec94361941813bc05a810cb",
    "layouttype": 2,
    "name": "kony.ui.FlexContainer",
    "parent": "flxTextFunctions",
    "pf": "frmLogCommplain",
    "retaincontentalignment": false,
    "retainflexpositionproperties": false,
    "retainflowhorizontalalignment": false,
    "snapgridsize": 10,
    "snaptogrid": true,
    "vizProps": {
        "hide": false
    },
    "wType": "FlexContainer",
    "widgetalignment": 1
}