{
    "DNDConfig": null,
    "__parentReadjusting__": false,
    "_height_": {
        "type": "string",
        "value": "100%"
    },
    "_margin_": [
        0,
        0,
        0,
        0
    ],
    "_orientation_": 6,
    "_padding_": [
        0,
        0,
        0,
        0
    ],
    "_percent_": true,
    "_right_": {
        "type": "string",
        "value": "0%"
    },
    "_skin_": "s49d07a65a634391995b3ba1865cfa59",
    "_width_": {
        "type": "string",
        "value": "33.33%"
    },
    "allboxes": [],
    "autogrowmode": 0,
    "canUpdateUI": true,
    "centery": {
        "type": "string",
        "value": "50%"
    },
    "children": [
        "lblImageUploadAudio",
        "imgUploadAudio"
    ],
    "clipbounds": true,
    "containerweight": 100,
    "enablescrolling": true,
    "id": "flxUseImageAudio",
    "ide_onClick": "AS_FlexContainer_c41b45eb2898478c8bca19a6969f4f39",
    "info": null,
    "iscustomlayout": false,
    "isvisible": true,
    "kuid": "cdb50088c4e943638c75aff333f7549d",
    "layouttype": 2,
    "name": "kony.ui.FlexContainer",
    "parent": "flxAttachOrCancelAudio",
    "pf": "frmLogCommplain",
    "retaincontentalignment": false,
    "retainflexpositionproperties": false,
    "retainflowhorizontalalignment": false,
    "snapgridsize": 10,
    "snaptogrid": true,
    "vizProps": {
        "hide": false
    },
    "wType": "FlexContainer",
    "widgetalignment": 1
}