{
    "@class": "com.kony.gen.viz.model.component.KVizUserWidget",
    "DNDConfig": null,
    "__parentReadjusting__": false,
    "_android_": {},
    "_children_": [],
    "_height_": {
        "type": "string",
        "value": "100%"
    },
    "_iphone_": {},
    "_left_": {
        "type": "string",
        "value": "-100%"
    },
    "_margin_": [
        0,
        0,
        0,
        0
    ],
    "_orientation_": 1,
    "_padding_": [
        0,
        0,
        0,
        0
    ],
    "_percent_": true,
    "_skin_": "s49d07a65a634391995b3ba1865cfa59",
    "_spa_": {},
    "_spaan_": {},
    "_spabb_": {},
    "_spaip_": {},
    "_top_": {
        "type": "string",
        "value": "0dp"
    },
    "_vizProps_": {
        "hidewidgethierarchy": false
    },
    "_width_": {
        "type": "string",
        "value": "100%"
    },
    "areflexpropsreferenced": false,
    "canUpdateUI": true,
    "clipbounds": true,
    "containerweight": 0,
    "dataDiffs": {
        "Hamburger": {
            "__events__": {},
            "__info__": {
                "isRoot": true,
                "kuid": "b58b662e501e4b64a4601ac8af57c046",
                "srcKUID": "cbac264a3c2a4c019db3769d7ba88fbe",
                "wType": "FlexContainer"
            },
            "left": {
                "Default": {
                    "type": "string",
                    "value": "-100%"
                }
            }
        },
        "flxAboutKYou": {
            "__events__": {},
            "__info__": {
                "kuid": "bf8f5edf75074347bc93287ee4b040cd",
                "srcKUID": "b8a94e410a3b4db6abf6d221e619549b",
                "wType": "FlexContainer"
            }
        },
        "flxAccountSettings": {
            "__events__": {},
            "__info__": {
                "kuid": "c539614369d2494ea6d9d878be2fd123",
                "srcKUID": "c0baf5b8112848b49b1de4c168d38f73",
                "wType": "FlexContainer"
            }
        },
        "flxHistory": {
            "__events__": {},
            "__info__": {
                "kuid": "a7a504ffc3944b5ea9bd5346537c9718",
                "srcKUID": "f6f9a49320ed4abeac8fe32a67e16980",
                "wType": "FlexContainer"
            }
        },
        "flxImgIcon": {
            "__events__": {},
            "__info__": {
                "kuid": "ac6dd291373e4f3fb6585dcc4a17d6df",
                "srcKUID": "h990483f86934efca00d7c103c79c2fd",
                "wType": "FlexContainer"
            }
        },
        "flxInviteFriends": {
            "__events__": {},
            "__info__": {
                "kuid": "ad7c35cdbc434c89af29a4eddebdc3ed",
                "srcKUID": "d0a2587a70994549a0929bee53ac21cb",
                "wType": "FlexContainer"
            }
        },
        "flxMenuOptions": {
            "__events__": {},
            "__info__": {
                "kuid": "c9e7d1d058e749fb96d745cf439526b5",
                "srcKUID": "e7b017fea0ae40f6a1e26b7c6f42f190",
                "wType": "FlexContainer"
            }
        },
        "flxOverlay": {
            "__events__": {
                "ide_onTouchStart": "AS_FlexContainer_f698552fbf6a42b4a88d7d3e313c4bdf"
            },
            "__info__": {
                "kuid": "bf6badb57a694ccd9784c0d9c9d80f30",
                "srcKUID": "d2514fed071a4c04b4ae98c8cf417720",
                "wType": "FlexContainer"
            }
        },
        "flxReports": {
            "__events__": {},
            "__info__": {
                "kuid": "c2360600a95044229060305abaf918d5",
                "srcKUID": "c8f31c6405044da7920d4c4378421e96",
                "wType": "FlexContainer"
            }
        },
        "flxSideMenu": {
            "__events__": {},
            "__info__": {
                "kuid": "b6191165392f4e7c8aa9a9b2513ab374",
                "srcKUID": "c569e3fd7d5449c08918667df3e1da92",
                "wType": "FlexContainer"
            }
        },
        "flxSignOut": {
            "__events__": {},
            "__info__": {
                "kuid": "bd139205980d423bb356b3322994ee94",
                "srcKUID": "dac5679e8dfd41e491b5c62cfc2026d5",
                "wType": "FlexContainer"
            }
        },
        "flxUser": {
            "__events__": {},
            "__info__": {
                "kuid": "a9dd351f8c914d67bbfa6aeb578ba663",
                "srcKUID": "b92cfd5df88c4cfda5a75c2acae6e0ba",
                "wType": "FlexContainer"
            }
        },
        "flxUserGuide": {
            "__events__": {},
            "__info__": {
                "kuid": "dc03f7039b8b4db8949b37efd8392daf",
                "srcKUID": "daebd1c9558d45248acdcbf8cacbf747",
                "wType": "FlexContainer"
            }
        },
        "flxUserLiner": {
            "__events__": {},
            "__info__": {
                "kuid": "bfe2650c9b0f4702a396fd99888dd13f",
                "srcKUID": "jee111cc9a7242ddbe7271059683f759",
                "wType": "FlexContainer"
            }
        },
        "imgAccSettings": {
            "__events__": {},
            "__info__": {
                "kuid": "j7161bcaed474da58de2260ad19c0cb3",
                "srcKUID": "f554fe9d90fd432e86bb8da6c3039681",
                "wType": "Image"
            }
        },
        "imgEditIcon": {
            "__events__": {},
            "__info__": {
                "kuid": "f0149d8acdff4bc8b85d999010347b87",
                "srcKUID": "d4b370a65fbc4ca5a9c2bc2bcce4a44e",
                "wType": "Image"
            }
        },
        "imgHistoryIcon": {
            "__events__": {},
            "__info__": {
                "kuid": "a22ca95d8d7c42b0b6e678115722e707",
                "srcKUID": "i973dce66c6548769214a98bb23cccef",
                "wType": "Image"
            }
        },
        "imgInviteIcon": {
            "__events__": {},
            "__info__": {
                "kuid": "c658fdb737b74550bc23a219371be06d",
                "srcKUID": "g3d0d13e8c544191b304f5f9ad18a16e",
                "wType": "Image"
            }
        },
        "imgKYou": {
            "__events__": {},
            "__info__": {
                "kuid": "c01e09fcf10f46fea5a4bd72cc6414c5",
                "srcKUID": "a06b3c19345343a288c909b511f23249",
                "wType": "Image"
            }
        },
        "imgReportsIcon": {
            "__events__": {},
            "__info__": {
                "kuid": "c2f8b73e86e74c94aecce1e6dfd0b2d6",
                "srcKUID": "ja9890f706b74f08b061f8b8b77050f7",
                "wType": "Image"
            }
        },
        "imgSignOut": {
            "__events__": {},
            "__info__": {
                "kuid": "e024345de0d34877a8df0b3d92d6f172",
                "srcKUID": "jfd3ec0b7c9d4fa5a9e994621b2338bf",
                "wType": "Image"
            }
        },
        "imgUserGuideIcon": {
            "__events__": {},
            "__info__": {
                "kuid": "aa4601ddeab54232903621b3547d7092",
                "srcKUID": "ab3bf89d3c8740aeb16586f8cb3abe17",
                "wType": "Image"
            }
        },
        "imgUserIcon": {
            "__events__": {},
            "__info__": {
                "kuid": "bb6c11d831bb44e49861051faaf68ed0",
                "srcKUID": "ebfe36674ba24577926add9ce682150a",
                "wType": "Image"
            }
        },
        "lblAboutKYou": {
            "__events__": {},
            "__info__": {
                "kuid": "a170b833bf0d4a95a56312b41eb9a99c",
                "srcKUID": "c6380db4ea064b7c8e94b7f54deafb27",
                "wType": "Label"
            }
        },
        "lblAccSettings": {
            "__events__": {},
            "__info__": {
                "kuid": "c36f2b7934a446b9b00b08eb5236caea",
                "srcKUID": "fa8a5325eebe422aa1a6bf5b089aed0c",
                "wType": "Label"
            }
        },
        "lblHistory": {
            "__events__": {},
            "__info__": {
                "kuid": "f1fadd450c07428aaa1be49e1fac6c47",
                "srcKUID": "i17cede0ce494724a1f579358f6e09e8",
                "wType": "Label"
            }
        },
        "lblInviteFriends": {
            "__events__": {},
            "__info__": {
                "kuid": "id6ddb0c79cb412aa5ef603aa6b27bdb",
                "srcKUID": "aa99c873222f477b951bb58276283bc4",
                "wType": "Label"
            }
        },
        "lblSignOut": {
            "__events__": {},
            "__info__": {
                "kuid": "b1b730ae16c8492c89952e4fec095105",
                "srcKUID": "g2f12bdb35f34c0894e52d72088a08de",
                "wType": "Label"
            }
        },
        "lblUserGuide": {
            "__events__": {},
            "__info__": {
                "kuid": "c744b5106e0e43aa87d0aba716adc826",
                "srcKUID": "cdafb8cc76e24dbf83fa5484fe66b4d4",
                "wType": "Label"
            }
        },
        "lblUserName": {
            "__events__": {},
            "__info__": {
                "kuid": "b543412598e54a0385db08ac39baf4fa",
                "srcKUID": "b68efa728a9842df83b82c86596dc75f",
                "wType": "Label"
            }
        },
        "lblreports": {
            "__events__": {},
            "__info__": {
                "kuid": "b8acec1e52a44379a24c8da30a0476c5",
                "srcKUID": "adf54ffa9a274d44acde4bdecf72ae1f",
                "wType": "Label"
            }
        }
    },
    "enablescrolling": true,
    "id": "Hamburger",
    "info": null,
    "iscustomlayout": false,
    "isdatareferenced": false,
    "isvisible": true,
    "kuid": "b58b662e501e4b64a4601ac8af57c046",
    "layouttype": 2,
    "masterType": 0,
    "name": "kony.ui.UserWidgetInstance",
    "parent": "frmLogCommplain",
    "pf": "frmLogCommplain",
    "retaincontentalignment": false,
    "retainflexpositionproperties": false,
    "retainflowhorizontalalignment": false,
    "snapgridsize": 10,
    "snaptogrid": true,
    "sourceUserWidget": "cbac264a3c2a4c019db3769d7ba88fbe",
    "wType": "UserWidgetInstance"
}