{
    "AS_FlexContainer_c41b45eb2898478c8bca19a6969f4f39": {
        "id": "AS_FlexContainer_c41b45eb2898478c8bca19a6969f4f39",
        "type": "ACTION_SEQUENCE",
        "params": [{
            "datatype": "collection",
            "name": "eventobject"
        }],
        "language": "js",
        "actions": []
    }
}