{
    "AS_FlexContainer_bd8eac923f6a42d7a3051a573d26fdcc": {
        "id": "AS_FlexContainer_bd8eac923f6a42d7a3051a573d26fdcc",
        "type": "ACTION_SEQUENCE",
        "params": [{
            "datatype": "collection",
            "name": "eventobject"
        }, {
            "datatype": "string",
            "name": "x"
        }, {
            "datatype": "string",
            "name": "y"
        }],
        "contextObj": {
            "name": "frmLandingPage",
            "type": "forms",
            "platform": "",
            "KUID": "bcb56b961fbe40c0bb0338c324aaa7fd"
        },
        "language": "js",
        "actions": [{
            "id": "NAVIGATE_TO_FORM___c756aba939f04813adc558480c53caa1",
            "type": "NAVIGATE_TO_FORM",
            "formId": "frmSearch",
            "formKUID": "g64613e4c185478b9076b87871656193",
            "mappings": {},
            "mappingsOrder": [],
            "parentId": "",
            "callbackType": null,
            "enableMappingEditor": true,
            "package": "HomeContent",
            "navigationObj": "{\n    \"_meta_\": {\n        \"eventName\": \"onTouchStart\",\n        \"widgetId\": \"flxHospitals\"\n    }\n}",
            "isCustomInput": false
        }]
    }
}