{
    "AS_FlexContainer_a799c7b8915340ec8c7538e3575014ab": {
        "id": "AS_FlexContainer_a799c7b8915340ec8c7538e3575014ab",
        "type": "ACTION_SEQUENCE",
        "params": [{
            "datatype": "collection",
            "name": "eventobject"
        }],
        "language": "js",
        "actions": [{
            "id": "SET_FORM_WIDGET_PROPERTY____fbb306c01fe44083a0daf9bfa0e0d7e4",
            "type": "SET_WIDGET_PROPERTY",
            "itemType": "FORM",
            "itemId": "frmLogCommplain",
            "widgetId": "flxAttachImage",
            "propertyName": "isVisible",
            "propertyValue": "false",
            "itemKUID": "edfcc718f96b44299fd055e8d2441884",
            "widgetKUID": "h2ddc2e1e2804f4ba081545bb10b4ae7",
            "isSkinProperty": false,
            "wType": "FlexContainer",
            "forkedPlatform": "all",
            "callbackType": null,
            "widgetPath": "this.view.flxAttachImage"
        }]
    }
}