{
    "AS_FlexContainer_i62677b25e6d4f0a8cd06958e0d6f807": {
        "id": "AS_FlexContainer_i62677b25e6d4f0a8cd06958e0d6f807",
        "type": "ACTION_SEQUENCE",
        "params": [{
            "datatype": "collection",
            "name": "eventobject"
        }, {
            "datatype": "string",
            "name": "x"
        }, {
            "datatype": "string",
            "name": "y"
        }],
        "contextObj": {
            "name": "frmLandingPage",
            "type": "forms",
            "platform": null,
            "KUID": "bcb56b961fbe40c0bb0338c324aaa7fd"
        },
        "language": "js",
        "actions": [{
            "id": "MOVE_ACTION____efef76962b214fc2af20043fd96d8810",
            "type": "MOVE_ACTION",
            "itemType": "FORM",
            "itemId": "frmLandingPage",
            "widgetId": "flxBody",
            "itemKUID": "bcb56b961fbe40c0bb0338c324aaa7fd",
            "widgetKUID": "c210e7be60e14d9c8cd3ec1fe4ebffe0",
            "wType": "FlexContainer",
            "animationObject": {
                "left": "80%",
                "anchorPoint": {},
                "stepConfig": {
                    "timingFunction": "kony.anim.EASE"
                }
            },
            "config": {
                "delay": "0",
                "iterationCount": 1,
                "fillMode": "kony.anim.FILL_MODE_FORWARDS",
                "duration": "350"
            },
            "start": "Immediately",
            "animationId": "MOVE_ACTION____efef76962b214fc2af20043fd96d8810",
            "displayAnimationId": "MOVE_ACTION____efef76962b214fc2af20043fd96d8810",
            "forkedPlatform": "all",
            "parentId": null,
            "callbackType": null,
            "widgetPath": "this.view.flxBody"
        }]
    }
}