{
    "AS_FlexContainer_b32cc503b3a6479c9966c58e6d065aa7": {
        "id": "AS_FlexContainer_b32cc503b3a6479c9966c58e6d065aa7",
        "type": "ACTION_SEQUENCE",
        "params": [{
            "datatype": "collection",
            "name": "eventobject"
        }],
        "language": "js",
        "actions": [{
            "id": "SET_FORM_WIDGET_PROPERTY____i1b246dd4fff42cfa9629b438e0189a6",
            "type": "SET_WIDGET_PROPERTY",
            "itemType": "FORM",
            "itemId": "frmLogCommplain",
            "widgetId": "flxAttachImageForAudio",
            "propertyName": "isVisible",
            "propertyValue": "false",
            "itemKUID": "edfcc718f96b44299fd055e8d2441884",
            "widgetKUID": "d5e04342b7164265b4939cab2515d3a5",
            "isSkinProperty": false,
            "wType": "FlexContainer",
            "forkedPlatform": "all",
            "callbackType": null,
            "widgetPath": "this.view.flxAttachImageForAudio"
        }]
    }
}