{
    "AS_FlexContainer_c11f6447d2124b8c8728f31c78057c0f": {
        "id": "AS_FlexContainer_c11f6447d2124b8c8728f31c78057c0f",
        "type": "ACTION_SEQUENCE",
        "params": [{
            "datatype": "collection",
            "name": "eventobject"
        }, {
            "datatype": "string",
            "name": "x"
        }, {
            "datatype": "string",
            "name": "y"
        }],
        "language": "js",
        "actions": []
    }
}