{
    "AS_FlexContainer_f5b34b71416a460b9ddc010bd30f0ce5": {
        "id": "AS_FlexContainer_f5b34b71416a460b9ddc010bd30f0ce5",
        "type": "ACTION_SEQUENCE",
        "params": [{
            "datatype": "collection",
            "name": "eventobject"
        }],
        "language": "js",
        "actions": [{
            "id": "SET_FORM_WIDGET_PROPERTY____h67867cbce5445b8a4afa9a506d27d30",
            "type": "SET_WIDGET_PROPERTY",
            "itemType": "FORM",
            "itemId": "frmLogCommplain",
            "widgetId": "flxAttachImage",
            "propertyName": "isVisible",
            "propertyValue": "true",
            "itemKUID": "edfcc718f96b44299fd055e8d2441884",
            "widgetKUID": "h2ddc2e1e2804f4ba081545bb10b4ae7",
            "isSkinProperty": false,
            "wType": "FlexContainer",
            "forkedPlatform": "all",
            "callbackType": null,
            "widgetPath": "this.view.flxAttachImage"
        }, {
            "id": "___ide_onClick_fd16397026264f448ead3e5193f35387",
            "type": "MOVE_ACTION",
            "itemType": "FORM",
            "itemId": "frmLogCommplain",
            "widgetId": "flxAttachImage",
            "itemKUID": "edfcc718f96b44299fd055e8d2441884",
            "widgetKUID": "h2ddc2e1e2804f4ba081545bb10b4ae7",
            "wType": "FlexContainer",
            "animationObject": {
                "anchorPoint": {},
                "stepConfig": {
                    "timingFunction": "kony.anim.EASE"
                },
                "top": "0%"
            },
            "config": {
                "delay": "0",
                "duration": "400",
                "fillMode": "kony.anim.FILL_MODE_FORWARDS",
                "iterationCount": 1
            },
            "start": "Immediately",
            "animationId": "MOVE_ACTION____e6b7e3fc3add42c79d9185c7778c39fb",
            "displayAnimationId": "MOVE_ACTION____e6b7e3fc3add42c79d9185c7778c39fb",
            "forkedPlatform": "all",
            "callbackType": null,
            "widgetPath": "this.view.flxAttachImage"
        }]
    }
}