{
    "AS_FlexContainer_aa3d44b02fd748dea22b8ec7a683b28c": {
        "id": "AS_FlexContainer_aa3d44b02fd748dea22b8ec7a683b28c",
        "type": "ACTION_SEQUENCE",
        "params": [{
            "datatype": "collection",
            "name": "eventobject"
        }, {
            "datatype": "string",
            "name": "x"
        }, {
            "datatype": "string",
            "name": "y"
        }],
        "contextObj": {
            "name": "frmSearch",
            "type": "forms",
            "platform": "",
            "KUID": "g64613e4c185478b9076b87871656193"
        },
        "language": "js",
        "actions": [{
            "id": "___ide_onTouchStart_c29fa0ef069c435d9c8f2c458fe77b90",
            "type": "MOVE_ACTION",
            "itemType": "FORM",
            "itemId": "frmSearch",
            "widgetId": "flxSegData",
            "itemKUID": "g64613e4c185478b9076b87871656193",
            "widgetKUID": "de47bf8e88be4d30ad2482766f146c5a",
            "wType": "FlexScrollContainer",
            "animationObject": {
                "top": "35%",
                "anchorPoint": {},
                "stepConfig": {
                    "timingFunction": "kony.anim.EASE"
                }
            },
            "config": {
                "delay": "0",
                "iterationCount": 1,
                "fillMode": "kony.anim.FILL_MODE_FORWARDS",
                "duration": "400"
            },
            "start": "Immediately",
            "animationId": "MOVE_ACTION____fcff9906067a4de3a4e356a1d8da2f7b",
            "displayAnimationId": "MOVE_ACTION____fcff9906067a4de3a4e356a1d8da2f7b",
            "forkedPlatform": "all",
            "callbackType": null,
            "widgetPath": "this.view.flxSegData"
        }]
    }
}