{
    "AS_FlexContainer_f517a72473b64660b4ca4703b1f4efba": {
        "id": "AS_FlexContainer_f517a72473b64660b4ca4703b1f4efba",
        "type": "ACTION_SEQUENCE",
        "params": [{
            "datatype": "collection",
            "name": "eventobject"
        }],
        "language": "js",
        "actions": []
    }
}