{
    "AS_FlexContainer_c5c5dd4bd8954a0ab30be9b622c436ff": {
        "id": "AS_FlexContainer_c5c5dd4bd8954a0ab30be9b622c436ff",
        "type": "ACTION_SEQUENCE",
        "params": [{
            "datatype": "collection",
            "name": "eventobject"
        }],
        "language": "js",
        "actions": []
    }
}