{
    "AS_FlexContainer_cac7804e0d1047fa9e59dfda97b689d3": {
        "id": "AS_FlexContainer_cac7804e0d1047fa9e59dfda97b689d3",
        "type": "ACTION_SEQUENCE",
        "params": [{
            "datatype": "collection",
            "name": "eventobject"
        }],
        "language": "js",
        "actions": []
    }
}