{
    "AS_FlexContainer_e88c0463d1f3449c903ebb7bf1099bda": {
        "id": "AS_FlexContainer_e88c0463d1f3449c903ebb7bf1099bda",
        "type": "ACTION_SEQUENCE",
        "params": [{
            "datatype": "collection",
            "name": "eventobject"
        }, {
            "datatype": "string",
            "name": "x"
        }, {
            "datatype": "string",
            "name": "y"
        }],
        "language": "js",
        "actions": [{
            "id": "___ide_onTouchStart_aac0b45fcf9f41fb91f175f51d035f81",
            "type": "MOVE_ACTION",
            "itemType": "FORM",
            "itemId": "frmLogsHistory",
            "widgetId": "Hamburger",
            "itemKUID": "j54f29d1a137420cbaae3d40f664bf11",
            "widgetKUID": "dec7541a04494ab5b5b99b52b0599ffc",
            "wType": "UserWidgetInstance",
            "animationObject": {
                "left": "0%",
                "anchorPoint": {},
                "stepConfig": {
                    "timingFunction": "kony.anim.EASE"
                }
            },
            "config": {
                "delay": "0",
                "iterationCount": 1,
                "fillMode": "kony.anim.FILL_MODE_FORWARDS",
                "duration": "400"
            },
            "start": "Immediately",
            "parentAnimation": "MOVE_ACTION____c8bb5e127c91423cac1d9ea854dcdf1c",
            "animationId": "MOVE_ACTION____gf475aaeccc645b1a365df9f7605817e",
            "displayAnimationId": "MOVE_ACTION____gf475aaeccc645b1a365df9f7605817e",
            "forkedPlatform": "all",
            "callbackType": null,
            "widgetPath": "this.view.Hamburger"
        }, {
            "id": "___ide_onTouchStart_ee364ba62848482c85832342f9c42b1c",
            "type": "MOVE_ACTION",
            "itemType": "FORM",
            "itemId": "frmLogsHistory",
            "widgetId": "flxContent",
            "itemKUID": "j54f29d1a137420cbaae3d40f664bf11",
            "widgetKUID": "e934135c019e40f7b9a5b46b7f6aaf73",
            "wType": "FlexContainer",
            "animationObject": {
                "left": "80%",
                "anchorPoint": {},
                "stepConfig": {
                    "timingFunction": "kony.anim.EASE"
                }
            },
            "config": {
                "delay": "0",
                "iterationCount": "1",
                "fillMode": "kony.anim.FILL_MODE_FORWARDS",
                "duration": "400"
            },
            "start": "Immediately",
            "parentAnimation": "MOVE_ACTION____gf475aaeccc645b1a365df9f7605817e",
            "animationId": "MOVE_ACTION____c8bb5e127c91423cac1d9ea854dcdf1c",
            "displayAnimationId": "MOVE_ACTION____c8bb5e127c91423cac1d9ea854dcdf1c",
            "forkedPlatform": "all",
            "callbackType": null,
            "widgetPath": "this.view.flxContent"
        }]
    }
}