{
    "AS_FlexContainer_ddd434ba2a704499923b150b7f028afe": {
        "id": "AS_FlexContainer_ddd434ba2a704499923b150b7f028afe",
        "type": "ACTION_SEQUENCE",
        "params": [{
            "datatype": "collection",
            "name": "eventobject"
        }, {
            "datatype": "string",
            "name": "x"
        }, {
            "datatype": "string",
            "name": "y"
        }],
        "language": "js",
        "actions": [{
            "id": "___ide_onTouchStart_e4f471485f9e403da1d9d4eaaf7c66bb",
            "type": "MOVE_ACTION",
            "itemType": "FORM",
            "itemId": "frmLogCommplain",
            "widgetId": "Hamburger",
            "itemKUID": "edfcc718f96b44299fd055e8d2441884",
            "widgetKUID": "b58b662e501e4b64a4601ac8af57c046",
            "wType": "UserWidgetInstance",
            "animationObject": {
                "left": "0%",
                "anchorPoint": {},
                "stepConfig": {
                    "timingFunction": "kony.anim.EASE"
                }
            },
            "config": {
                "delay": "0",
                "iterationCount": 1,
                "fillMode": "kony.anim.FILL_MODE_FORWARDS",
                "duration": "400"
            },
            "start": "Immediately",
            "parentAnimation": "MOVE_ACTION____c8bb5e127c91423cac1d9ea854dcdf1c",
            "animationId": "MOVE_ACTION____gf475aaeccc645b1a365df9f7605817e",
            "displayAnimationId": "MOVE_ACTION____gf475aaeccc645b1a365df9f7605817e",
            "forkedPlatform": "all",
            "callbackType": null,
            "widgetPath": "this.view.Hamburger"
        }, {
            "id": "___ide_onTouchStart_g09aa3df91a24711960e4d3dfd2ddb4a",
            "type": "MOVE_ACTION",
            "itemType": "FORM",
            "itemId": "frmLogCommplain",
            "widgetId": "flxContentMain",
            "itemKUID": "edfcc718f96b44299fd055e8d2441884",
            "widgetKUID": "b19edc0fec104d0989d1dae9d5e126bf",
            "wType": "FlexContainer",
            "animationObject": {
                "left": "80%",
                "anchorPoint": {},
                "stepConfig": {
                    "timingFunction": "kony.anim.EASE"
                }
            },
            "config": {
                "delay": "0",
                "iterationCount": 1,
                "fillMode": "kony.anim.FILL_MODE_FORWARDS",
                "duration": "400"
            },
            "start": "Immediately",
            "parentAnimation": "MOVE_ACTION____gf475aaeccc645b1a365df9f7605817e",
            "animationId": "MOVE_ACTION____c8bb5e127c91423cac1d9ea854dcdf1c",
            "displayAnimationId": "MOVE_ACTION____c8bb5e127c91423cac1d9ea854dcdf1c",
            "forkedPlatform": "all",
            "callbackType": null,
            "widgetPath": "this.view.flxContentMain"
        }]
    }
}