{
    "AS_FlexContainer_baf2437abfb84d43871cc61ade7453bf": {
        "actions": [
            {
                "animationId": "MOVE_ACTION____d9d959500d9a450eb817889b886d8d6b",
                "animationObject": {
                    "anchorPoint": {},
                    "left": "0%",
                    "stepConfig": {
                        "timingFunction": "kony.anim.EASE"
                    }
                },
                "callbackType": null,
                "config": {
                    "delay": "0",
                    "direction": "kony.anim.DIRECTION_ALTERNATE",
                    "duration": "400",
                    "fillMode": "kony.anim.FILL_MODE_FORWARDS",
                    "iterationCount": 1
                },
                "displayAnimationId": "MOVE_ACTION____d9d959500d9a450eb817889b886d8d6b",
                "forkedPlatform": "all",
                "id": "MOVE_ACTION____d9d959500d9a450eb817889b886d8d6b",
                "itemId": "frmHomeContent",
                "itemKUID": "ba7b5f545d1e476e9060e7d39924380f",
                "itemType": "FORM",
                "parentId": null,
                "start": "Immediately",
                "type": "MOVE_ACTION",
                "wType": "FlexContainer",
                "widgetId": "flxTextAudioSurveyContent",
                "widgetKUID": "i50fb276d1dd40529c738562e0eb3cc6",
                "widgetPath": "this.view.flxTextAudioSurveyContent"
            },
            {
                "callbackType": null,
                "forkedPlatform": "all",
                "id": "SET_FORM_WIDGET_PROPERTY_Untitled___a310c6c03f38451ebbdede2122a8e404",
                "isSkinProperty": false,
                "itemId": "frmHomeContent",
                "itemKUID": "ba7b5f545d1e476e9060e7d39924380f",
                "itemType": "FORM",
                "parentId": null,
                "propertyName": "opacity",
                "propertyValue": "0.4",
                "type": "SET_WIDGET_PROPERTY",
                "wType": "FlexContainer",
                "widgetId": "flxColour1",
                "widgetKUID": "eb84ff6e310d4907a17a6b31de11b6c9",
                "widgetPath": "this.view.flxColour1"
            },
            {
                "callbackType": null,
                "forkedPlatform": "all",
                "id": "SET_FORM_WIDGET_PROPERTY_Untitled___d1fa2bf47b7c46f0840a421d4a17ad68",
                "isSkinProperty": false,
                "itemId": "frmHomeContent",
                "itemKUID": "ba7b5f545d1e476e9060e7d39924380f",
                "itemType": "FORM",
                "parentId": null,
                "propertyName": "opacity",
                "propertyValue": "0",
                "type": "SET_WIDGET_PROPERTY",
                "wType": "FlexContainer",
                "widgetId": "flxColour2",
                "widgetKUID": "ded159a2535f40dfa07351b7a95d052e",
                "widgetPath": "this.view.flxColour2"
            },
            {
                "callbackType": null,
                "forkedPlatform": "all",
                "id": "SET_FORM_WIDGET_PROPERTY_Untitled___daf41dc66eb6479490d11e0ba99d4f1a",
                "isSkinProperty": false,
                "itemId": "frmHomeContent",
                "itemKUID": "ba7b5f545d1e476e9060e7d39924380f",
                "itemType": "FORM",
                "parentId": null,
                "propertyName": "opacity",
                "propertyValue": "0",
                "type": "SET_WIDGET_PROPERTY",
                "wType": "FlexContainer",
                "widgetId": "flxColour3",
                "widgetKUID": "a79d3680273f4f80912ad10d090a107b",
                "widgetPath": "this.view.flxColour3"
            }
        ],
        "contextObj": {
            "KUID": "ba7b5f545d1e476e9060e7d39924380f",
            "name": "frmHomeContent",
            "platform": null,
            "type": "forms"
        },
        "id": "AS_FlexContainer_baf2437abfb84d43871cc61ade7453bf",
        "language": "js",
        "params": [
            {
                "datatype": "collection",
                "name": "eventobject"
            }
        ],
        "type": "ACTION_SEQUENCE"
    }
}