{
  "android": {
    "font_name": "default",
    "font_size": 130,
    "isForked": false
  },
  "androidwearos": {
    "font_name": "default",
    "font_size": 130,
    "isForked": false
  },
  "background_color": "ffffff66",
  "bg_type": "one",
  "border_color": "00000000",
  "border_style": "rc",
  "border_type": 0,
  "border_width": 1,
  "desktopweb": {
    "font_name": "Helvetica",
    "font_size": 130,
    "isForked": false
  },
  "fontSizeInPx": false,
  "font_color": "000000ff",
  "font_name": "iphoneSystem",
  "font_size": 130,
  "font_style": "normal",
  "font_weight": "normal",
  "ipad": {
    "font_name": "System",
    "font_size": 130,
    "isForked": false
  },
  "iphone": {
    "font_name": "Helvetica-Light",
    "font_size": 130,
    "isForked": false
  },
  "isDefaultSkin": false,
  "kiosk": {
    "font_name": "None",
    "font_size": 130,
    "isForked": false
  },
  "kuid": "s7d5f5664b1f4c179546b3e3e5102c82",
  "spaan": {
    "font_name": "Helvetica",
    "font_size": 130,
    "isForked": false
  },
  "spaandroidtablet": {
    "font_name": "Helvetica",
    "font_size": 130,
    "isForked": false
  },
  "spabb": {
    "font_name": "Helvetica",
    "font_size": 130,
    "isForked": false
  },
  "spaip": {
    "font_name": "Helvetica",
    "font_size": 130,
    "isForked": false
  },
  "spaipad": {
    "font_name": "Helvetica",
    "font_size": 130,
    "isForked": false
  },
  "spawindowstablet": {
    "font_name": "Helvetica",
    "font_size": 130,
    "isForked": false
  },
  "spawinphone8": {
    "font_name": "Helvetica",
    "font_size": 130,
    "isForked": false
  },
  "tabrcandroid": {
    "font_name": "default",
    "font_size": 130,
    "isForked": false
  },
  "wType": "TextArea",
  "watchos": {
    "font_name": "System",
    "font_size": 130,
    "isForked": false
  },
  "windows8": {
    "font_name": "None",
    "font_size": 130,
    "isForked": false
  },
  "winphone8": {
    "font_name": "None",
    "font_size": 130,
    "isForked": false
  }
}