{
  "android": {
    "font_name": "default"
  },
  "androidwearos": {
    "font_name": "default"
  },
  "background_color": "00000000",
  "bg_type": "one",
  "border_color": "ffffff4c",
  "border_style": "rc",
  "border_type": 0,
  "border_width": 2,
  "desktopweb": {
    "bottom_left_border_color": "ffffff4c",
    "bottom_left_border_style": "plain",
    "bottom_left_border_width": 2,
    "bottom_right_border_color": "ffffff4c",
    "bottom_right_border_style": "plain",
    "bottom_right_border_width": 2,
    "font_name": "Helvetica",
    "isForked": true,
    "shadow": {
      "br": 35,
      "color": "ffffffff",
      "inner": false,
      "nm": 0,
      "x": 35,
      "y": 45
    },
    "top_left_border_color": "ffffff4c",
    "top_left_border_style": "plain",
    "top_left_border_width": 2,
    "top_right_border_color": "ffffff4c",
    "top_right_border_style": "plain",
    "top_right_border_width": 2
  },
  "ipad": {
    "font_name": "System",
    "isForked": true,
    "shadow": {
      "br": 35,
      "color": "ffffffff",
      "inner": false,
      "nm": 0,
      "x": 35,
      "y": 45
    }
  },
  "iphone": {
    "font_name": "System",
    "isForked": true,
    "shadow": {
      "br": 35,
      "color": "ffffffff",
      "inner": false,
      "nm": 0,
      "x": 35,
      "y": 45
    }
  },
  "isDefaultSkin": false,
  "kiosk": {
    "font_name": "None"
  },
  "kuid": "s0b8f580a0ea4927b800a5df60ebb942",
  "spaan": {
    "bottom_left_border_color": "ffffff4c",
    "bottom_left_border_style": "plain",
    "bottom_left_border_width": 2,
    "bottom_right_border_color": "ffffff4c",
    "bottom_right_border_style": "plain",
    "bottom_right_border_width": 2,
    "font_name": "Helvetica",
    "isForked": true,
    "shadow": {
      "br": 35,
      "color": "ffffffff",
      "inner": false,
      "nm": 0,
      "x": 35,
      "y": 45
    },
    "top_left_border_color": "ffffff4c",
    "top_left_border_style": "plain",
    "top_left_border_width": 2,
    "top_right_border_color": "ffffff4c",
    "top_right_border_style": "plain",
    "top_right_border_width": 2
  },
  "spaandroidtablet": {
    "bottom_left_border_color": "ffffff4c",
    "bottom_left_border_style": "plain",
    "bottom_left_border_width": 2,
    "bottom_right_border_color": "ffffff4c",
    "bottom_right_border_style": "plain",
    "bottom_right_border_width": 2,
    "font_name": "Helvetica",
    "isForked": true,
    "shadow": {
      "br": 35,
      "color": "ffffffff",
      "inner": false,
      "nm": 0,
      "x": 35,
      "y": 45
    },
    "top_left_border_color": "ffffff4c",
    "top_left_border_style": "plain",
    "top_left_border_width": 2,
    "top_right_border_color": "ffffff4c",
    "top_right_border_style": "plain",
    "top_right_border_width": 2
  },
  "spabb": {
    "bottom_left_border_color": "ffffff4c",
    "bottom_left_border_style": "plain",
    "bottom_left_border_width": 2,
    "bottom_right_border_color": "ffffff4c",
    "bottom_right_border_style": "plain",
    "bottom_right_border_width": 2,
    "font_name": "Helvetica",
    "isForked": true,
    "shadow": {
      "br": 35,
      "color": "ffffffff",
      "inner": false,
      "nm": 0,
      "x": 35,
      "y": 45
    },
    "top_left_border_color": "ffffff4c",
    "top_left_border_style": "plain",
    "top_left_border_width": 2,
    "top_right_border_color": "ffffff4c",
    "top_right_border_style": "plain",
    "top_right_border_width": 2
  },
  "spaip": {
    "bottom_left_border_color": "ffffff4c",
    "bottom_left_border_style": "plain",
    "bottom_left_border_width": 2,
    "bottom_right_border_color": "ffffff4c",
    "bottom_right_border_style": "plain",
    "bottom_right_border_width": 2,
    "font_name": "Helvetica",
    "isForked": true,
    "shadow": {
      "br": 35,
      "color": "ffffffff",
      "inner": false,
      "nm": 0,
      "x": 35,
      "y": 45
    },
    "top_left_border_color": "ffffff4c",
    "top_left_border_style": "plain",
    "top_left_border_width": 2,
    "top_right_border_color": "ffffff4c",
    "top_right_border_style": "plain",
    "top_right_border_width": 2
  },
  "spaipad": {
    "bottom_left_border_color": "ffffff4c",
    "bottom_left_border_style": "plain",
    "bottom_left_border_width": 2,
    "bottom_right_border_color": "ffffff4c",
    "bottom_right_border_style": "plain",
    "bottom_right_border_width": 2,
    "font_name": "Helvetica",
    "isForked": true,
    "shadow": {
      "br": 35,
      "color": "ffffffff",
      "inner": false,
      "nm": 0,
      "x": 35,
      "y": 45
    },
    "top_left_border_color": "ffffff4c",
    "top_left_border_style": "plain",
    "top_left_border_width": 2,
    "top_right_border_color": "ffffff4c",
    "top_right_border_style": "plain",
    "top_right_border_width": 2
  },
  "spawindowstablet": {
    "bottom_left_border_color": "ffffff4c",
    "bottom_left_border_style": "plain",
    "bottom_left_border_width": 2,
    "bottom_right_border_color": "ffffff4c",
    "bottom_right_border_style": "plain",
    "bottom_right_border_width": 2,
    "font_name": "Helvetica",
    "isForked": true,
    "shadow": {
      "br": 35,
      "color": "ffffffff",
      "inner": false,
      "nm": 0,
      "x": 35,
      "y": 45
    },
    "top_left_border_color": "ffffff4c",
    "top_left_border_style": "plain",
    "top_left_border_width": 2,
    "top_right_border_color": "ffffff4c",
    "top_right_border_style": "plain",
    "top_right_border_width": 2
  },
  "spawinphone8": {
    "bottom_left_border_color": "ffffff4c",
    "bottom_left_border_style": "plain",
    "bottom_left_border_width": 2,
    "bottom_right_border_color": "ffffff4c",
    "bottom_right_border_style": "plain",
    "bottom_right_border_width": 2,
    "font_name": "Helvetica",
    "isForked": true,
    "shadow": {
      "br": 35,
      "color": "ffffffff",
      "inner": false,
      "nm": 0,
      "x": 35,
      "y": 45
    },
    "top_left_border_color": "ffffff4c",
    "top_left_border_style": "plain",
    "top_left_border_width": 2,
    "top_right_border_color": "ffffff4c",
    "top_right_border_style": "plain",
    "top_right_border_width": 2
  },
  "tabrcandroid": {
    "font_name": "default"
  },
  "wType": "FlexContainer",
  "watchos": {
    "font_name": "System"
  },
  "windows8": {
    "font_name": "None"
  },
  "winphone8": {
    "font_name": "None"
  }
}