{
  "android": {
    "background_color": {
      "angle": 45,
      "colors": [
        "8d1517ff",
        "8d1517e6",
        "8d1517cc"
      ],
      "cs": [
        0,
        64,
        97
      ],
      "gradientType": "custom",
      "gt": "linear"
    },
    "background_style": "linear",
    "bg_type": "ms_gradient",
    "isForked": true
  },
  "androidwearos": {
    "background_color": {
      "angle": 45,
      "colors": [
        "8d1517ff",
        "8d1517e6",
        "8d1517cc"
      ],
      "cs": [
        0,
        64,
        97
      ],
      "gradientType": "custom",
      "gt": "linear"
    },
    "background_style": "linear",
    "bg_type": "ms_gradient",
    "isForked": true
  },
  "background_color": "ffffff",
  "bg_type": "one",
  "border_color": "ffffffff",
  "ipad": {
    "background_color": {
      "angle": 45,
      "colors": [
        "8d1517ff",
        "8d1517e6",
        "8d1517cc"
      ],
      "cs": [
        0,
        64,
        97
      ],
      "gradientType": "custom",
      "gt": "linear"
    },
    "background_style": "linear",
    "bg_type": "ms_gradient",
    "isForked": true
  },
  "iphone": {
    "background_color": {
      "angle": 45,
      "colors": [
        "8d1517ff",
        "8d1517e6",
        "8d1517cc"
      ],
      "cs": [
        0,
        64,
        97
      ],
      "gradientType": "custom",
      "gt": "linear"
    },
    "background_style": "linear",
    "bg_type": "ms_gradient",
    "isForked": true
  },
  "isDefaultSkin": false,
  "kiosk": {
    "background_color": {
      "angle": 45,
      "colors": [
        "8d1517ff",
        "8d1517e6",
        "8d1517cc"
      ],
      "cs": [
        0,
        64,
        97
      ],
      "gradientType": "custom",
      "gt": "linear"
    },
    "background_style": "linear",
    "bg_type": "ms_gradient",
    "isForked": true
  },
  "kuid": "s3b297eae4a541e8906079559e69c001",
  "tabrcandroid": {
    "background_color": {
      "angle": 45,
      "colors": [
        "8d1517ff",
        "8d1517e6",
        "8d1517cc"
      ],
      "cs": [
        0,
        64,
        97
      ],
      "gradientType": "custom",
      "gt": "linear"
    },
    "background_style": "linear",
    "bg_type": "ms_gradient",
    "isForked": true
  },
  "wType": "Form",
  "windows8": {
    "background_color": {
      "angle": 45,
      "colors": [
        "8d1517ff",
        "8d1517e6",
        "8d1517cc"
      ],
      "cs": [
        0,
        64,
        97
      ],
      "gradientType": "custom",
      "gt": "linear"
    },
    "background_style": "linear",
    "bg_type": "ms_gradient",
    "isForked": true
  },
  "winphone8": {
    "background_color": {
      "angle": 45,
      "colors": [
        "8d1517ff",
        "8d1517e6",
        "8d1517cc"
      ],
      "cs": [
        0,
        64,
        97
      ],
      "gradientType": "custom",
      "gt": "linear"
    },
    "background_style": "linear",
    "bg_type": "ms_gradient",
    "isForked": true
  }
}