{
    "@class": "com.kony.gen.viz.model.component.KVizButton",
    "DNDConfig": null,
    "__parentReadjusting__": false,
    "_height_": {
        "type": "string",
        "value": "50dp"
    },
    "_left_": {
        "type": "string",
        "value": "0"
    },
    "_margin_": [
        6,
        6,
        6,
        6
    ],
    "_padding_": [
        0,
        0,
        0,
        0
    ],
    "_skin_": "s610456ab1ec4f83b2ff23067622dc3d",
    "_text_": "SIGN UP",
    "_top_": {
        "type": "string",
        "value": "1%"
    },
    "_width_": {
        "type": "string",
        "value": "90%"
    },
    "canUpdateUI": true,
    "centerx": {
        "type": "string",
        "value": "50%"
    },
    "containerweight": 100,
    "contentalignment": 5,
    "displaytext": true,
    "focusskin": "s4f50daa02a144deb81d97f5ab69d0dd",
    "id": "btnSignUp",
    "ide_onClick": "AS_Button_d69331f093a54300ab8225fa114cdc73",
    "info": null,
    "iscustomlayout": false,
    "isvisible": true,
    "kuid": "e185e3ef9fb6439fad3086c45f92f74a",
    "name": "kony.ui.Button",
    "parent": "flxBody",
    "pf": "frmSignUp",
    "retaincontentalignment": false,
    "retainflexpositionproperties": false,
    "wType": "Button"
}