{
    "@class": "com.kony.gen.viz.model.component.KVizListBox",
    "DNDConfig": null,
    "__parentReadjusting__": false,
    "_height_": {
        "type": "string",
        "value": "60dp"
    },
    "_left_": {
        "type": "string",
        "value": "0"
    },
    "_margin_": [
        0,
        0,
        0,
        0
    ],
    "_padding_": [
        3,
        0,
        0,
        0
    ],
    "_placeholder_": "Please Select",
    "_skin_": "s9d4e51dcc60415b869ac49c6d569bcb",
    "_top_": {
        "type": "string",
        "value": "2.00%"
    },
    "_width_": {
        "type": "string",
        "value": "100%"
    },
    "android": {
        "psp": {
            "popupTitle": "Select Language"
        },
        "viewType": 4
    },
    "canUpdateUI": true,
    "centerx": {
        "type": "string",
        "value": "49.98%"
    },
    "containerweight": 100,
    "contentalignment": 4,
    "dropdownimage": "listboxarw.png",
    "focusskin": "s7638229b5e14c558811633fb16291f3",
    "groupcells": false,
    "id": "lstLanguage",
    "info": null,
    "iphone": {
        "viewType": 3
    },
    "iscustomlayout": false,
    "isvisible": true,
    "kuid": "jc0c39fc07cb4b7fbaf977ecf1deca4c",
    "masterdata": [
        [
            "lb1",
            "Select Language"
        ],
        [
            "lb2",
            "English"
        ],
        [
            "lb3",
            "IsiXhosa"
        ],
        [
            "Key2952059623",
            "IsiZulu"
        ],
        [
            "Key1917699167",
            "Sepedi"
        ]
    ],
    "name": "kony.ui.ListBox",
    "parent": "flxLangauge",
    "pf": "frmSignUp",
    "retaincontentalignment": false,
    "retainflexpositionproperties": false,
    "selectedkey": "lb1",
    "selectedkeys": null,
    "selectedkeyvalue": [
        "lb1",
        "Select Language"
    ],
    "selectedkeyvalues": null,
    "size": 18,
    "viewtype": 0,
    "wType": "ListBox"
}