{
    "@class": "com.kony.gen.viz.model.component.KVizUserWidget",
    "DNDConfig": null,
    "__parentReadjusting__": false,
    "_android_": {},
    "_children_": [],
    "_height_": {
        "type": "string",
        "value": "100%"
    },
    "_iphone_": {},
    "_left_": {
        "type": "string",
        "value": "-100%"
    },
    "_margin_": [
        0,
        0,
        0,
        0
    ],
    "_orientation_": 1,
    "_padding_": [
        0,
        0,
        0,
        0
    ],
    "_percent_": true,
    "_skin_": "s49d07a65a634391995b3ba1865cfa59",
    "_spa_": {},
    "_spaan_": {},
    "_spabb_": {},
    "_spaip_": {},
    "_top_": {
        "type": "string",
        "value": "0dp"
    },
    "_vizProps_": {
        "hidewidgethierarchy": false
    },
    "_width_": {
        "type": "string",
        "value": "100%"
    },
    "areflexpropsreferenced": false,
    "autogrowmode": 0,
    "canUpdateUI": true,
    "clipbounds": true,
    "containerweight": 0,
    "dataDiffs": {
        "Hamburger": {
            "__events__": {},
            "__info__": {
                "isRoot": true,
                "kuid": "dec7541a04494ab5b5b99b52b0599ffc",
                "srcKUID": "cbac264a3c2a4c019db3769d7ba88fbe",
                "wType": "FlexContainer"
            },
            "left": {
                "Default": {
                    "type": "string",
                    "value": "-100%"
                }
            }
        },
        "flxAboutKYou": {
            "__events__": {},
            "__info__": {
                "kuid": "da311dcf85824e069a0a81d0c3671377",
                "srcKUID": "b8a94e410a3b4db6abf6d221e619549b",
                "wType": "FlexContainer"
            }
        },
        "flxAccountSettings": {
            "__events__": {},
            "__info__": {
                "kuid": "bcd8c16b66b34ddea3d4cc4cff945794",
                "srcKUID": "c0baf5b8112848b49b1de4c168d38f73",
                "wType": "FlexContainer"
            }
        },
        "flxHistory": {
            "__events__": {},
            "__info__": {
                "kuid": "haa2e4b6142b410087f31eb6db2c3d66",
                "srcKUID": "f6f9a49320ed4abeac8fe32a67e16980",
                "wType": "FlexContainer"
            }
        },
        "flxImgIcon": {
            "__events__": {},
            "__info__": {
                "kuid": "id8036985d194598a29f02cc1b13327b",
                "srcKUID": "h990483f86934efca00d7c103c79c2fd",
                "wType": "FlexContainer"
            }
        },
        "flxInviteFriends": {
            "__events__": {},
            "__info__": {
                "kuid": "ia2de195614b4df7bf11e91ff4e3f752",
                "srcKUID": "d0a2587a70994549a0929bee53ac21cb",
                "wType": "FlexContainer"
            }
        },
        "flxMenuOptions": {
            "__events__": {},
            "__info__": {
                "kuid": "e03f8fa0f72e44598bfdf1aea5b075e7",
                "srcKUID": "e7b017fea0ae40f6a1e26b7c6f42f190",
                "wType": "FlexContainer"
            }
        },
        "flxOverlay": {
            "__events__": {
                "ide_onTouchStart": "AS_FlexContainer_fb2ffaaefc7442ba86640654fa1dc86e"
            },
            "__info__": {
                "kuid": "b142a049175b450d9fca7f1fadee3140",
                "srcKUID": "d2514fed071a4c04b4ae98c8cf417720",
                "wType": "FlexContainer"
            }
        },
        "flxReports": {
            "__events__": {},
            "__info__": {
                "kuid": "f35dab13be974a189a9c5300a602097f",
                "srcKUID": "c8f31c6405044da7920d4c4378421e96",
                "wType": "FlexContainer"
            }
        },
        "flxSideMenu": {
            "__events__": {},
            "__info__": {
                "kuid": "e661eaa635274747a50cc2903a80e8c7",
                "srcKUID": "c569e3fd7d5449c08918667df3e1da92",
                "wType": "FlexContainer"
            }
        },
        "flxSignOut": {
            "__events__": {},
            "__info__": {
                "kuid": "ab259e1d3a4b40efb53142da75f99350",
                "srcKUID": "dac5679e8dfd41e491b5c62cfc2026d5",
                "wType": "FlexContainer"
            }
        },
        "flxUser": {
            "__events__": {},
            "__info__": {
                "kuid": "eaf79daa007d4f07bfad04737cf08474",
                "srcKUID": "b92cfd5df88c4cfda5a75c2acae6e0ba",
                "wType": "FlexContainer"
            }
        },
        "flxUserGuide": {
            "__events__": {},
            "__info__": {
                "kuid": "h5991ee9c78046bc955dd407234b80b3",
                "srcKUID": "daebd1c9558d45248acdcbf8cacbf747",
                "wType": "FlexContainer"
            }
        },
        "flxUserLiner": {
            "__events__": {},
            "__info__": {
                "kuid": "f5e69eda61cb4729bcb42eaa05acc477",
                "srcKUID": "jee111cc9a7242ddbe7271059683f759",
                "wType": "FlexContainer"
            }
        },
        "imgAccSettings": {
            "__events__": {},
            "__info__": {
                "kuid": "e200891ae9594dcfa47858bc790efe3a",
                "srcKUID": "f554fe9d90fd432e86bb8da6c3039681",
                "wType": "Image"
            }
        },
        "imgEditIcon": {
            "__events__": {},
            "__info__": {
                "kuid": "f0001ba0977c49e3b7bfca9b23f98bf8",
                "srcKUID": "d4b370a65fbc4ca5a9c2bc2bcce4a44e",
                "wType": "Image"
            }
        },
        "imgHistoryIcon": {
            "__events__": {},
            "__info__": {
                "kuid": "ed930e99679f4bea863cad8cbeb80267",
                "srcKUID": "i973dce66c6548769214a98bb23cccef",
                "wType": "Image"
            }
        },
        "imgInviteIcon": {
            "__events__": {},
            "__info__": {
                "kuid": "d06a6a0bb21647808574309d00a56c91",
                "srcKUID": "g3d0d13e8c544191b304f5f9ad18a16e",
                "wType": "Image"
            }
        },
        "imgKYou": {
            "__events__": {},
            "__info__": {
                "kuid": "f635af4910014771bc155a0f9d67efbf",
                "srcKUID": "a06b3c19345343a288c909b511f23249",
                "wType": "Image"
            }
        },
        "imgReportsIcon": {
            "__events__": {},
            "__info__": {
                "kuid": "j1b4fa8cf6fd433bb63956038e3888b4",
                "srcKUID": "ja9890f706b74f08b061f8b8b77050f7",
                "wType": "Image"
            }
        },
        "imgSignOut": {
            "__events__": {},
            "__info__": {
                "kuid": "a3dd8d36b1c14aa7af78962865d7c9ee",
                "srcKUID": "jfd3ec0b7c9d4fa5a9e994621b2338bf",
                "wType": "Image"
            }
        },
        "imgUserGuideIcon": {
            "__events__": {},
            "__info__": {
                "kuid": "df6a8dc3c87c4d89a2537dd2bbec05ac",
                "srcKUID": "ab3bf89d3c8740aeb16586f8cb3abe17",
                "wType": "Image"
            }
        },
        "imgUserIcon": {
            "__events__": {},
            "__info__": {
                "kuid": "c93363cbd80b444d8dc43840ee983278",
                "srcKUID": "ebfe36674ba24577926add9ce682150a",
                "wType": "Image"
            }
        },
        "lblAboutKYou": {
            "__events__": {},
            "__info__": {
                "kuid": "jc06841213304313aee502a909fe8be5",
                "srcKUID": "c6380db4ea064b7c8e94b7f54deafb27",
                "wType": "Label"
            }
        },
        "lblAccSettings": {
            "__events__": {},
            "__info__": {
                "kuid": "d686714a0ddf4d6aa42fd0ebbdfa0c7d",
                "srcKUID": "fa8a5325eebe422aa1a6bf5b089aed0c",
                "wType": "Label"
            }
        },
        "lblHistory": {
            "__events__": {},
            "__info__": {
                "kuid": "j7ef5bca42334b1badc5312a9fc390f9",
                "srcKUID": "i17cede0ce494724a1f579358f6e09e8",
                "wType": "Label"
            }
        },
        "lblInviteFriends": {
            "__events__": {},
            "__info__": {
                "kuid": "b640a572183f4fe7a2ff5a2aade10cc9",
                "srcKUID": "aa99c873222f477b951bb58276283bc4",
                "wType": "Label"
            }
        },
        "lblSignOut": {
            "__events__": {},
            "__info__": {
                "kuid": "ebe643ac7ac44baead00bbd20059dc97",
                "srcKUID": "g2f12bdb35f34c0894e52d72088a08de",
                "wType": "Label"
            }
        },
        "lblUserGuide": {
            "__events__": {},
            "__info__": {
                "kuid": "af333ce629c349c5ae334f1adb4e7b53",
                "srcKUID": "cdafb8cc76e24dbf83fa5484fe66b4d4",
                "wType": "Label"
            }
        },
        "lblUserName": {
            "__events__": {},
            "__info__": {
                "kuid": "fc5584d202d24bb48e5a83a17eaa9752",
                "srcKUID": "b68efa728a9842df83b82c86596dc75f",
                "wType": "Label"
            }
        },
        "lblreports": {
            "__events__": {},
            "__info__": {
                "kuid": "e47b76db8c234c22a2b3cdbbda98c8a5",
                "srcKUID": "adf54ffa9a274d44acde4bdecf72ae1f",
                "wType": "Label"
            }
        }
    },
    "enablescrolling": true,
    "id": "Hamburger",
    "info": null,
    "iscustomlayout": false,
    "isdatareferenced": false,
    "isvisible": true,
    "kuid": "dec7541a04494ab5b5b99b52b0599ffc",
    "layouttype": 2,
    "masterType": 0,
    "name": "kony.ui.UserWidgetInstance",
    "parent": "frmLogsHistory",
    "pf": "frmLogsHistory",
    "retaincontentalignment": false,
    "retainflexpositionproperties": false,
    "retainflowhorizontalalignment": false,
    "snapgridsize": 10,
    "snaptogrid": true,
    "sourceUserWidget": "cbac264a3c2a4c019db3769d7ba88fbe",
    "wType": "UserWidgetInstance"
}