{
    "@class": "com.kony.gen.viz.model.component.KVizButton",
    "DNDConfig": null,
    "__parentReadjusting__": false,
    "_height_": {
        "type": "string",
        "value": "100%"
    },
    "_left_": {
        "type": "string",
        "value": "0dp"
    },
    "_margin_": [
        6,
        6,
        6,
        6
    ],
    "_padding_": [
        0,
        0,
        0,
        0
    ],
    "_skin_": "s5434a77eb164df2b2307c3f7bfc8871",
    "_text_": "",
    "_top_": {
        "type": "string",
        "value": "0dp"
    },
    "_width_": {
        "type": "string",
        "value": "100%"
    },
    "canUpdateUI": true,
    "containerweight": 100,
    "contentalignment": 5,
    "displaytext": true,
    "enablehapticfeedback": true,
    "focusskin": "s5434a77eb164df2b2307c3f7bfc8871",
    "id": "btnToggleRecord",
    "ide_onClick": "AS_Button_fea0cdd1e4574fafb2e370810484e537",
    "info": null,
    "iscustomlayout": false,
    "isvisible": true,
    "kuid": "f3ffd9f8249c436b8f114d49335d5b8d",
    "name": "kony.ui.Button",
    "parent": "audio",
    "pf": "userwidgetmodel",
    "retaincontentalignment": false,
    "retainflexpositionproperties": false,
    "wType": "Button",
    "zindex": 1
}